Visualizing Fish Encounter Histories
…
The following code will allow you to download the tidied sample data and visualize it with ggplot2, provided you have all the packages listed below installed.

library(tidyverse)

# download sample data; adjust destfile filepath as necessary.
if (!file.exists("fishdata.csv")) {
  download.file(
    url = 'https://github.com/Myfanwy/ReproducibleExamples/raw/master/encounterhistories/fishdata.csv',
    destfile = "fishdata.csv"
  )
}

(d <- read_csv("fishdata.csv"))

## # A tibble: 209 x 3
##    TagID Station value
##    <int> <chr>   <int>
##  1  4842 Release     1
##  2  4843 Release     1
##  3  4844 Release     1
##  4  4845 Release     1
##  5  4847 Release     1
##  6  4848 Release     1
##  7  4849 Release     1
##  8  4850 Release     1
##  9  4851 Release     1
## 10  4854 Release     1
## # ... with 199 more rows
…
