ALEXFINN - Visualizing Fish Encounter Histories
…
Where each row represents a different tagged fish, and each column represents a different receiver location, ordered from the most upstream (Release) to the most downstream (MAW). A “1” indicates a successful detection at that receiver, and a 0 represents a lack of detection. A tidied version of this data is included in the code below.

A typical pattern for outmigrating juvenile fish is to see most individuals detected at a release site, and then observe the detection rate declining across fish as they migrate downstream and succumb to predation or other mortality factors. However, some fish will miss one monitor only to be detected at one or more monitors downstream. Because the missed monitors (which look like 0s or NAs in the dataset) are just as important as the hit monitors, we want to include them in our visualizations.

The following code will allow you to download the sample data and visualize it with ggplot2, provided you have all the packages listed below installed. The visualization we’ve chosen is one that utilizes geom_path() to connect each fish’s string of encounters together.

library(tidyverse)

# download sample data; note that the destfile path defaults to your root directory; adjust filepath as necessary.
download.file('https://github.com/Myfanwy/ReproducibleExamples/raw/master/encounterhistories/fishdata.csv', destfile = "fishdata.csv")

(d <- read_csv("fishdata.csv"))

## # A tibble: 209 x 3
##    TagID Station value
##    <int>   <chr> <int>
##  1  4842 Release     1
##  2  4843 Release     1
##  3  4844 Release     1
##  4  4845 Release     1
##  5  4847 Release     1
##  6  4848 Release     1
##  7  4849 Release     1
##  8  4850 Release     1
##  9  4851 Release     1
## 10  4854 Release     1
## # ... with 199 more rows
…
